X:1
M:none
L:1/8
K:F clef=treble-8
%%score a b c d
V:a clef=treble-8 stem=down name="W1 f.3"
c3d3!l(!e!l)!f2e2z
V:b clef=treble-8 stem=down name="F f.3v"
!l(!c!l)!d2!l(!e!l)!f2e3z3
V:c clef=treble-8 stem=down name="LoA f.81"
c3!l(!de2!l)!f3e2z
V:d clef=treble-8 stem=down name="Ma f.16"
c3!l(!def!l)!e3z3
w:(\-nus\-)
