X:1
M:none
L:1/4
K:F clef=treble-8
%%score a b
V:a clef=treble-8 stem=down name="W1 f.53"
A0D0A0A0A0!l(!A0!l)!F0!shortphrase!G0
V:b clef=treble-8 stem=down name="F f.164"
A0D0A0A0A0A0F0!shortphrase!G0
w:(\-e\-)
