X:1
M:none
L:1/4
K:C clef=treble-8
%%score [a b] [c d] e
V:a clef=treble-8 stem=down name="W1 f.9v"
!l(!B0A0!l)!c0!l(!B0!l)!('d0c0B0A0)!l(!d0c0B0!l)!!head-shd!!shortphrase!A0!l(!c0!l)!!shortphrase!A0
V:b clef=treble-8 stem=down name="W2 f.11v\nF f.35v\n(Mo not shown)"
!l(!B0A0!l)!c0!l(!B0!l)!('d0c0B0A0)!l(!d0c0B0!l)!!head-shd!!shortphrase!A0c0!shortphrase!A0
V:c clef=treble stem=down name="W1"
!l(!E0x///G0!l)!F0x///!l(!E0x///!l)!D0x///E0!l(!D0x///E0!l)!('F0x///E0x///!shortphrase!D0)x///!l(!C0!l)!!shortphrase!D0
V:d clef=treble stem=down name="W2, F"
!l(!E0x///G0!l)!F0x///!l(!E0x///!l)!D0x///E0!l(!D0x///E0!l)!('F0x///E0x///!shortphrase!D0)x///C0!shortphrase!D0
V:e clef=bass stem=down octave=-1
E0xxxG0xxxA0xx!shortphrase!xG0!shortphrase!x
w:do**mi
