X:1
M:none
L:1/4
K:C clef=treble-8
%%score [(a ta) (b tb)]
V:b clef=treble-8 stem=down name="VT n.44\n(12e) f.46vA"
!l(!e0d0('!l)!e0xd0c0B0)!l(!d0c0('!l)!d0xc0B0A0)!l(!c0B0('!l)!c0xB0A0G0)!l(!A0!l)!!shortphrase!c0!shortphrase!B0
V:tb clef=treble-8 stem=down
L:1/1
E0xxxxx/x//B0
V:a clef=treble-8 stem=down name="F f.83"
L:1/4
!l(!e0d0!l)!e0('e0d0c0B0)!l(!d0c0!l)!d0('d0c0B0A0)!l(!c0B0!l)!c0('c0B0A0!shortphrase!G0)!shortphrase!A0
V:ta clef=treble-8 stem=down
L:1/1
E0xxxxx//D0
	
